{
    "palabras": [
        { "name": "ADIOS" },
        { "name": "BARCO"},
        { "name": "CAPOS"},
        { "name": "DORIA"},
        { "name": "ERICK"},
        { "name": "FETOS"},
        { "name": "GINZA"},
        { "name": "HULLO"},
        { "name": "ICFES"},
        { "name": "JENNY"},
        { "name": "KAKAS"},
        { "name": "LATEX"},
        { "name": "MATAR"},
        { "name": "NEGRO"},
        { "name": "OBAMA"},
        { "name": "POLAS"},
        { "name": "QUITE"},
        { "name": "RECTA"},
        { "name": "SONAR"},
        { "name": "TAROT"}
    ]
}